Soc_lab3/fir.vcd
$date
   Tue Oct 24 13:19:58 2023
$end
$version
  2022.1
$end
$timescale
  1ps
$end
$scope module fir_tb $end
$var wire 1 ! awready $end
$var wire 1 " wready $end
$var reg 1 # awvalid $end
$var reg 12 $ awaddr [11:0] $end
$var reg 1 % wvalid $end
$var reg 32 & wdata [31:0] $end
$var wire 1 ' arready $end
$var reg 1 ( rready $end
$var reg 1 ) arvalid $end
$var reg 12 * araddr [11:0] $end
$var wire 1 + rvalid $end
$var wire 32 , rdata [31:0] $end
$var reg 1 - ss_tvalid $end
$var reg 32 . ss_tdata [31:0] $end
$var reg 1 / ss_tlast $end
$var wire 1 0 ss_tready $end
$var reg 1 1 sm_tready $end
$var wire 1 2 sm_tvalid $end
$var wire 32 3 sm_tdata [31:0] $end
$var wire 1 4 sm_tlast $end
$var reg 1 5 axis_clk $end
$var reg 1 6 axis_rst_n $end
$var wire 4 7 tap_WE [3:0] $end
$var wire 1 8 tap_EN $end
$var wire 32 9 tap_Di [31:0] $end
$var wire 12 : tap_A [11:0] $end
$var wire 32 ; tap_Do [31:0] $end
$var wire 4 < data_WE [3:0] $end
$var wire 1 = data_EN $end
$var wire 32 > data_Di [31:0] $end
$var wire 12 ? data_A [11:0] $end
$var wire 32 @ data_Do [31:0] $end
$var reg 32 A data_length [31:0] $end
$var integer 32 B Din [31:0] $end
$var integer 32 C golden [31:0] $end
$var integer 32 D input_data [31:0] $end
$var integer 32 E golden_data [31:0] $end
$var integer 32 F m [31:0] $end
$var integer 32 G i [31:0] $end
$var integer 32 H k [31:0] $end
$var reg 1 I error $end
$var integer 32 J timeout [31:0] $end
$scope module fir_DUT $end
$var wire 1 ' arready $end
$var wire 12 K araddr [11:0] $end
$var wire 1 L arvalid $end
$var wire 1 + rvalid $end
$var wire 32 , rdata [31:0] $end
$var wire 1 M rready $end
$var wire 1 ! awready $end
$var wire 12 N awaddr [11:0] $end
$var wire 1 O awvalid $end
$var wire 1 " wready $end
$var wire 1 P wvalid $end
$var wire 32 Q wdata [31:0] $end
$var wire 1 0 ss_tready $end
$var wire 1 2 sm_tvalid $end
$var wire 32 3 sm_tdata [31:0] $end
$var wire 1 4 sm_tlast $end
$var wire 1 R ss_tvalid $end
$var wire 32 S ss_tdata [31:0] $end
$var wire 1 T ss_tlast $end
$var wire 1 U sm_tready $end
$var wire 4 7 tap_WE [3:0] $end
$var wire 1 8 tap_EN $end
$var wire 32 9 tap_Di [31:0] $end
$var wire 12 : tap_A [11:0] $end
$var wire 32 ; tap_Do [31:0] $end
$var wire 4 < data_WE [3:0] $end
$var wire 1 = data_EN $end
$var wire 32 > data_Di [31:0] $end
$var wire 12 ? data_A [11:0] $end
$var wire 32 @ data_Do [31:0] $end
$var wire 1 V axis_clk $end
$var wire 1 W axis_rst_n $end
$var reg 2 X next_state [1:0] $end
$var reg 2 Y current_state [1:0] $end
$var reg 1 Z write_counter $end
$var reg 2 [ read_counter [1:0] $end
$var reg 6 \ tap_A_counter [5:0] $end
$var reg 12 ] tap_A_reg [11:0] $end
$var reg 32 ^ tap_Di_reg [31:0] $end
$var reg 4 _ tap_WE_reg [3:0] $end
$var reg 1 ` rvalid_reg $end
$var reg 32 a data_Di_reg [31:0] $end
$var reg 12 b data_A_reg [11:0] $end
$var reg 4 c data_WE_reg [3:0] $end
$var reg 12 d compute_counter [11:0] $end
$var reg 4 e pattern_cycle [3:0] $end
$var reg 10 f pattern_number [9:0] $end
$var reg 32 g streaming_data1 [31:0] $end
$var reg 32 h streaming_data2 [31:0] $end
$var reg 32 i coefficient_data [31:0] $end
$var reg 32 j Xn [31:0] $end
$var reg 32 k single_multi_element [31:0] $end
$var reg 32 l Yn [31:0] $end
$var wire 1 m single_pattern_done $end
$var reg 1 n self_reset $end
$scope module bram11_axilite $end
$var wire 1 V CLK $end
$var wire 4 7 WE [3:0] $end
$var wire 1 8 EN $end
$var wire 32 9 Di [31:0] $end
$var wire 32 ; Do [31:0] $end
$var wire 12 : A [11:0] $end
$var reg 12 o r_A [11:0] $end
$upscope $end
$scope module bram11_axistream $end
$var wire 1 V CLK $end
$var wire 4 < WE [3:0] $end
$var wire 1 = EN $end
$var wire 32 > Di [31:0] $end
$var wire 32 @ Do [31:0] $end
$var wire 12 ? A [11:0] $end
$var reg 12 p r_A [11:0] $end
$upscope $end
$upscope $end
$scope module tap_RAM $end
$var wire 1 q CLK $end
$var wire 4 7 WE [3:0] $end
$var wire 1 8 EN $end
$var wire 32 9 Di [31:0] $end
$var wire 32 ; Do [31:0] $end
$var wire 12 : A [11:0] $end
$var reg 12 r r_A [11:0] $end
$upscope $end
$scope module data_RAM $end
$var wire 1 s CLK $end
$var wire 4 < WE [3:0] $end
$var wire 1 = EN $end
$var wire 32 > Di [31:0] $end
$var wire 32 @ Do [31:0] $end
$var wire 12 ? A [11:0] $end
$var reg 12 t r_A [11:0] $end
$upscope $end
$scope task config_write $end
$var reg 12 u addr [11:0] $end
$var reg 32 v data [31:0] $end
$upscope $end
$scope task config_read_check $end
$var reg 12 w addr [11:0] $end
$var reg 32 x exp_data [31:0] $end
$var reg 32 y mask [31:0] $end
$upscope $end
$scope task ss $end
$var reg 32 z in1 [31:0] $end
$upscope $end
$scope task sm $end
$var reg 32 { in2 [31:0] $end
$var reg 32 | pcnt [31:0] $end
$upscope $end
$upscope $end
$enddefinitions $end
#0
$dumpvars
0!
0"
x#
bx $
x%
bx &
0'
x(
x)
bx *
0+
b100 ,
x-
bx .
x/
00
11
02
b0 3
04
05
06
b0 7
18
b0 9
b0 :
bx ;
b0 <
1=
b0 >
b0 ?
bx @
b1001011000 A
b11111111111111111011000111100000 B
b11111111111111111011000111100001 C
b1 D
b1 E
b1001011000 F
bx G
bx H
0I
b11110100001001000000 J
bx K
xL
xM
bx N
xO
xP
bx Q
xR
bx S
xT
1U
0V
0W
b0 X
b0 Y
0Z
b0 [
b0 \
b0 ]
b0 ^
b0 _
0`
b0 a
b0 b
b0 c
b0 d
b0 e
b0 f
b0 g
b0 h
b0 i
b0 j
b0 k
b0 l
0m
xn
bx o
bx p
0q
bx r
0s
bx t
bx u
bx v
bx w
bx x
bx y
bx z
bx {
bx |
$end
#5000
15
bx ;
bx @
b11110100001000111111 J
1V
b0 Y
0Z
b0 [
b0 \
b0 ]
b0 ^
b0 _
0`
b0 a
b0 b
b0 c
b0 d
b0 e
b0 f
b0 g
b0 h
b0 i
b0 j
b0 k
b0 l
b0 o
b0 p
1q
b0 r
1s
b0 t
#10000
05
0V
0q
0s
#15000
1#
b10000 $
0%
0(
0)
1-
b1 .
0/
15
16
b0 G
b11110100001000111110 J
0L
0M
b10000 N
1O
0P
1R
b1 S
0T
1V
1W
b0 X
b0 Y
0Z
b0 [
b0 \
b0 ]
b0 ^
b0 _
0`
b0 a
b0 b
b0 c
b0 d
b0 e
b0 f
bx g
b0 h
bx i
b0 j
b0 k
b0 o
b0 p
1q
b0 r
1s
b0 t
b10000 u
b1001011000 v
b1 z
#20000
05
0V
0q
0s
#25000
1!
1"
1#
1%
b1001011000 &
15
b11110100001000111101 J
1P
b1001011000 Q
1V
b1 X
b0 Y
1Z
b0 [
b0 \
b0 ]
b0 ^
b0 _
0`
b0 a
b0 b
b0 c
b0 d
b0 e
b0 f
bx g
bx h
bx i
b0 j
bx k
b0 o
b0 p
1q
b0 r
1s
b0 t
#30000
05
0V
0q
0s
#35000
1#
b100000 $
0%
b100 ,
00
15
b1111 7
b1001011000 9
b1111 <
b0 H
b11110100001000111100 J
b100000 N
1O
0P
1V
b1 X
b1 Y
1Z
b0 [
b0 \
b0 ]
b1001011000 ^
b1111 _
0`
b0 a
b0 b
b1111 c
b0 d
b0 e
b0 f
bx g
bx h
bx i
bx j
bx k
0m
b0 o
b0 p
1q
b0 r
1s
b0 t
b100000 u
b0 v
#40000
05
0V
0q
0s
#45000
0#
1%
b0 &
b100 ,
15
b0 7
b0 9
b1001011000 ;
b0 <
b0 @
b11110100001000111011 J
0O
1P
b0 Q
1V
b1 X
b1 Y
1Z
b0 [
b0 \
b0 ]
b0 ^
b0 _
0`
b0 a
b0 b
b0 c
b0 d
b0 e
b0 f
b0 g
bx h
bx i
bx j
bx k
b0 o
b0 p
1q
b0 r
1s
b0 t
#50000
05
0V
0q
0s
#55000
0!
0"
1#
b100100 $
0%
15
b1111 7
b1111 <
b1 H
b11110100001000111010 J
b100100 N
1O
0P
1V
b1 X
b1 Y
0Z
b0 [
b0 \
b0 ]
b0 ^
b1111 _
0`
b0 a
b0 b
b1111 c
b0 d
b0 e
b0 f
b0 g
b0 h
b1001011000 i
bx j
bx k
b0 o
b0 p
1q
b0 r
1s
b0 t
b100100 u
b11111111111111111111111111110110 v
#60000
05
0V
0q
0s
#65000
1!
1"
1#
1%
b11111111111111111111111111110110 &
b100 ,
15
b0 7
b0 ;
b0 <
b11110100001000111001 J
1P
b11111111111111111111111111110110 Q
1V
b1 X
b1 Y
1Z
b0 [
b0 \
b0 ]
b0 ^
b0 _
0`
b0 a
b0 b
b0 c
b0 d
b0 e
b0 f
b0 g
b0 h
b1001011000 i
b0 j
bx k
b0 o
b0 p
1q
b0 r
1s
b0 t
#70000
05
0V
0q
0s
#75000
1#
b101000 $
0%
15
b1111 7
b11111111111111111111111111110110 9
b100 :
b1111 <
b100 ?
b10 H
b11110100001000111000 J
b101000 N
1O
0P
1V
b1 X
b1 Y
1Z
b0 [
b0 \
b100 ]
b11111111111111111111111111110110 ^
b1111 _
0`
b0 a
b100 b
b1111 c
b0 d
b0 e
b0 f
b0 g
b0 h
b0 i
b0 j
b0 k
b0 o
b0 p
1q
b0 r
1s
b0 t
b101000 u
b11111111111111111111111111110111 v
#80000
05
0V
0q
0s
#85000
0#
1%
b11111111111111111111111111110111 &
b100 ,
15
b0 7
b0 9
b1000 :
b11111111111111111111111111110110 ;
b0 <
b1000 ?
b0 @
b11110100001000110111 J
0O
1P
b11111111111111111111111111110111 Q
1V
b1 X
b1 Y
1Z
b0 [
b0 \
b1000 ]
b0 ^
b0 _
0`
b0 a
b1000 b
b0 c
b0 d
b0 e
b0 f
b0 g
b0 h
b0 i
b0 j
b0 k
b100 o
b100 p
1q
b100 r
1s
b100 t
#90000
05
0V
0q
0s
#95000
0!
0"
1#
b101100 $
0%
b100 ,
15
b1111 7
b11111111111111111111111111110111 9
bx ;
b1111 <
bx @
b11 H
b11110100001000110110 J
b101100 N
1O
0P
1V
b1 X
b1 Y
0Z
b0 [
b0 \
b1000 ]
b11111111111111111111111111110111 ^
b1111 _
0`
b0 a
b1000 b
b1111 c
b0 d
b0 e
b0 f
b0 g
b0 h
b11111111111111111111111111110110 i
b0 j
b0 k
b1000 o
b1000 p
1q
b1000 r
1s
b1000 t
b101100 u
b10111 v
#100000
05
0V
0q
0s
#105000
1!
1"
1#
1%
b10111 &
b100 ,
15
b0 7
b0 9
b11111111111111111111111111110111 ;
b0 <
b0 @
b11110100001000110101 J
1P
b10111 Q
1V
b1 X
b1 Y
1Z
b0 [
b0 \
b1000 ]
b0 ^
b0 _
0`
b0 a
b1000 b
b0 c
b0 d
b0 e
b0 f
b0 g
b0 h
bx i
b0 j
b0 k
b1000 o
b1000 p
1q
b1000 r
1s
b1000 t
#110000
05
0V
0q
0s
#115000
1#
b110000 $
0%
15
b1111 7
b10111 9
b1100 :
b1111 <
b1100 ?
b100 H
b11110100001000110100 J
b110000 N
1O
0P
1V
b1 X
b1 Y
1Z
b0 [
b0 \
b1100 ]
b10111 ^
b1111 _
0`
b0 a
b1100 b
b1111 c
b0 d
b0 e
b0 f
b0 g
b0 h
b11111111111111111111111111110111 i
b0 j
bx k
b1000 o
b1000 p
1q
b1000 r
1s
b1000 t
b110000 u
b111000 v
#120000
05
0V
0q
0s
#125000
0#
1%
b111000 &
b100 ,
15
b0 7
b0 9
b10000 :
b10111 ;
b0 <
b10000 ?
b0 @
b11110100001000110011 J
0O
1P
b111000 Q
1V
b1 X
b1 Y
1Z
b0 [
b0 \
b10000 ]
b0 ^
b0 _
0`
b0 a
b10000 b
b0 c
b0 d
b0 e
b0 f
b0 g
b0 h
b11111111111111111111111111110111 i
b0 j
b0 k
b1100 o
b1100 p
1q
b1100 r
1s
b1100 t
#130000
05
0V
0q
0s
#135000
0!
0"
1#
b110100 $
0%
b100 ,
15
b1111 7
b111000 9
bx ;
b1111 <
bx @
b101 H
b11110100001000110010 J
b110100 N
1O
0P
1V
b1 X
b1 Y
0Z
b0 [
b0 \
b10000 ]
b111000 ^
b1111 _
0`
b0 a
b10000 b
b1111 c
b0 d
b0 e
b0 f
b0 g
b0 h
b10111 i
b0 j
b0 k
b10000 o
b10000 p
1q
b10000 r
1s
b10000 t
b110100 u
b111111 v
#140000
05
0V
0q
0s
#145000
1!
1"
1#
1%
b111111 &
b100 ,
15
b0 7
b0 9
b111000 ;
b0 <
b0 @
b11110100001000110001 J
1P
b111111 Q
1V
b1 X
b1 Y
1Z
b0 [
b0 \
b10000 ]
b0 ^
b0 _
0`
b0 a
b10000 b
b0 c
b0 d
b0 e
b0 f
b0 g
b0 h
bx i
b0 j
b0 k
b10000 o
b10000 p
1q
b10000 r
1s
b10000 t
#150000
05
0V
0q
0s
#155000
1#
b111000 $
0%
15
b1111 7
b111111 9
b10100 :
b1111 <
b10100 ?
b110 H
b11110100001000110000 J
b111000 N
1O
0P
1V
b1 X
b1 Y
1Z
b0 [
b0 \
b10100 ]
b111111 ^
b1111 _
0`
b0 a
b10100 b
b1111 c
b0 d
b0 e
b0 f
b0 g
b0 h
b111000 i
b0 j
bx k
b10000 o
b10000 p
1q
b10000 r
1s
b10000 t
b111000 u
b111000 v
#160000
05
0V
0q
0s
#165000
0#
1%
b111000 &
b100 ,
15
b0 7
b0 9
b11000 :
b111111 ;
b0 <
b11000 ?
b0 @
b11110100001000101111 J
0O
1P
b111000 Q
1V
b1 X
b1 Y
1Z
b0 [
b0 \
b11000 ]
b0 ^
b0 _
0`
b0 a
b11000 b
b0 c
b0 d
b0 e
b0 f
b0 g
b0 h
b111000 i
b0 j
b0 k
b10100 o
b10100 p
1q
b10100 r
1s
b10100 t
#170000
05
0V
0q
0s
#175000
0!
0"
1#
b111100 $
0%
b100 ,
15
b1111 7
b111000 9
bx ;
b1111 <
bx @
b111 H
b11110100001000101110 J
b111100 N
1O
0P
1V
b1 X
b1 Y
0Z
b0 [
b0 \
b11000 ]
b111000 ^
b1111 _
0`
b0 a
b11000 b
b1111 c
b0 d
b0 e
b0 f
b0 g
b0 h
b111111 i
b0 j
b0 k
b11000 o
b11000 p
1q
b11000 r
1s
b11000 t
b111100 u
b10111 v
#180000
05
0V
0q
0s
#185000
1!
1"
1#
1%
b10111 &
b100 ,
15
b0 7
b0 9
b111000 ;
b0 <
b0 @
b11110100001000101101 J
1P
b10111 Q
1V
b1 X
b1 Y
1Z
b0 [
b0 \
b11000 ]
b0 ^
b0 _
0`
b0 a
b11000 b
b0 c
b0 d
b0 e
b0 f
b0 g
b0 h
bx i
b0 j
b0 k
b11000 o
b11000 p
1q
b11000 r
1s
b11000 t
#190000
05
0V
0q
0s
#195000
1#
b1000000 $
0%
15
b1111 7
b10111 9
b11100 :
b1111 <
b11100 ?
b1000 H
b11110100001000101100 J
b1000000 N
1O
0P
1V
b1 X
b1 Y
1Z
b0 [
b0 \
b11100 ]
b10111 ^
b1111 _
0`
b0 a
b11100 b
b1111 c
b0 d
b0 e
b0 f
b0 g
b0 h
b111000 i
b0 j
bx k
b11000 o
b11000 p
1q
b11000 r
1s
b11000 t
b1000000 u
b11111111111111111111111111110111 v
#200000
05
0V
0q
0s
#205000
0#
1%
b11111111111111111111111111110111 &
b100 ,
15
b0 7
b0 9
b100000 :
b10111 ;
b0 <
b100000 ?
b0 @
b11110100001000101011 J
0O
1P
b11111111111111111111111111110111 Q
1V
b1 X
b1 Y
1Z
b0 [
b0 \
b100000 ]
b0 ^
b0 _
0`
b0 a
b100000 b
b0 c
b0 d
b0 e
b0 f
b0 g
b0 h
b111000 i
b0 j
b0 k
b11100 o
b11100 p
1q
b11100 r
1s
b11100 t
#210000
05
0V
0q
0s
#215000
0!
0"
1#
b1000100 $
0%
b100 ,
15
b1111 7
b11111111111111111111111111110111 9
bx ;
b1111 <
bx @
b1001 H
b11110100001000101010 J
b1000100 N
1O
0P
1V
b1 X
b1 Y
0Z
b0 [
b0 \
b100000 ]
b11111111111111111111111111110111 ^
b1111 _
0`
b0 a
b100000 b
b1111 c
b0 d
b0 e
b0 f
b0 g
b0 h
b10111 i
b0 j
b0 k
b100000 o
b100000 p
1q
b100000 r
1s
b100000 t
b1000100 u
b11111111111111111111111111110110 v
#220000
05
0V
0q
0s
#225000
1!
1"
1#
1%
b11111111111111111111111111110110 &
b100 ,
15
b0 7
b0 9
b11111111111111111111111111110111 ;
b0 <
b0 @
b11110100001000101001 J
1P
b11111111111111111111111111110110 Q
1V
b1 X
b1 Y
1Z
b0 [
b0 \
b100000 ]
b0 ^
b0 _
0`
b0 a
b100000 b
b0 c
b0 d
b0 e
b0 f
b0 g
b0 h
bx i
b0 j
b0 k
b100000 o
b100000 p
1q
b100000 r
1s
b100000 t
#230000
05
0V
0q
0s
#235000
1#
b1001000 $
0%
15
b1111 7
b11111111111111111111111111110110 9
b100100 :
b1111 <
b100100 ?
b1010 H
b11110100001000101000 J
b1001000 N
1O
0P
1V
b1 X
b1 Y
1Z
b0 [
b0 \
b100100 ]
b11111111111111111111111111110110 ^
b1111 _
0`
b0 a
b100100 b
b1111 c
b0 d
b0 e
b0 f
b0 g
b0 h
b11111111111111111111111111110111 i
b0 j
bx k
b100000 o
b100000 p
1q
b100000 r
1s
b100000 t
b1001000 u
b0 v
#240000
05
0V
0q
0s
#245000
0#
1%
b0 &
b100 ,
15
b0 7
b0 9
b101000 :
b11111111111111111111111111110110 ;
b0 <
b101000 ?
b0 @
b11110100001000100111 J
0O
1P
b0 Q
1V
b1 X
b1 Y
1Z
b0 [
b0 \
b101000 ]
b0 ^
b0 _
0`
b0 a
b101000 b
b0 c
b0 d
b0 e
b0 f
b0 g
b0 h
b11111111111111111111111111110111 i
b0 j
b0 k
b100100 o
b100100 p
1q
b100100 r
1s
b100100 t
#250000
05
0V
0q
0s
#255000
0!
0"
0#
0%
0(
1)
b100000 *
b100 ,
15
b1111 7
bx ;
b1111 <
bx @
b0 H
b11110100001000100110 J
b100000 K
1L
0P
1V
b1 Y
0Z
b0 [
b0 \
b101000 ]
b0 ^
b1111 _
0`
b0 a
b101000 b
b1111 c
b0 d
b0 e
b0 f
b0 g
b0 h
b11111111111111111111111111110110 i
b0 j
b0 k
b101000 o
b101000 p
1q
b101000 r
1s
b101000 t
b100000 w
b0 x
b11111111111111111111111111111111 y
#260000
05
0V
0q
0s
#265000
1'
1(
1)
b100 ,
15
b0 7
b0 :
b0 ;
b0 <
b0 ?
b0 @
b11110100001000100101 J
1M
1V
b1 Y
0Z
b1 [
b0 \
b0 ]
b0 ^
b0 _
0`
b0 a
b0 b
b0 c
b0 d
b0 e
b0 f
b0 g
b0 h
bx i
b0 j
b0 k
b101000 o
b101000 p
1q
b101000 r
1s
b101000 t
#270000
05
0V
0q
0s
#275000
0'
1+
b0 ,
15
b0 ;
b0 @
b11110100001000100100 J
1V
b1 X
b1 Y
0Z
b10 [
b0 \
b0 ]
b0 ^
b0 _
1`
b0 a
b0 b
b0 c
b0 d
b0 e
b0 f
b0 g
b0 h
b0 i
b0 j
bx k
b0 o
b0 p
1q
b0 r
1s
b0 t
#280000
05
0V
0q
0s
#285000
0'
0(
1)
b100100 *
0+
b100 ,
15
b1 H
b11110100001000100011 J
b100100 K
1L
0M
1V
b1 X
b1 Y
0Z
b0 [
b0 \
b0 ]
b0 ^
b0 _
0`
b0 a
b0 b
b0 c
b0 d
b0 e
b0 f
b0 g
b0 h
b0 i
b0 j
b0 k
b0 o
b0 p
1q
b0 r
1s
b0 t
b100100 w
b11111111111111111111111111110110 x
b11111111111111111111111111111111 y
#290000
05
0V
0q
0s
#295000
1'
1(
1)
15
b100 :
b100 ?
b11110100001000100010 J
1M
1V
b1 Y
0Z
b1 [
b0 \
b100 ]
b0 ^
b0 _
0`
b0 a
b100 b
b0 c
b0 d
b0 e
b0 f
b0 g
b0 h
b0 i
b0 j
b0 k
b0 o
b0 p
1q
b0 r
1s
b0 t
#300000
05
0V
0q
0s
#305000
0'
1+
b11111111111111111111111111110110 ,
15
b11111111111111111111111111110110 ;
b0 @
b11110100001000100001 J
1V
b1 X
b1 Y
0Z
b10 [
b0 \
b100 ]
b0 ^
b0 _
1`
b0 a
b100 b
b0 c
b0 d
b0 e
b0 f
b0 g
b0 h
b0 i
b0 j
b0 k
b100 o
b100 p
1q
b100 r
1s
b100 t
#310000
05
0V
0q
0s
#315000
0'
0(
1)
b101000 *
0+
b100 ,
15
b10 H
b11110100001000100000 J
b101000 K
1L
0M
1V
b1 X
b1 Y
0Z
b0 [
b0 \
b100 ]
b0 ^
b0 _
0`
b0 a
b100 b
b0 c
b0 d
b0 e
b0 f
b0 g
b0 h
b11111111111111111111111111110110 i
b0 j
b0 k
b100 o
b100 p
1q
b100 r
1s
b100 t
b101000 w
b11111111111111111111111111110111 x
b11111111111111111111111111111111 y
#320000
05
0V
0q
0s
#325000
1'
1(
1)
15
b1000 :
b1000 ?
b11110100001000011111 J
1M
1V
b1 Y
0Z
b1 [
b0 \
b1000 ]
b0 ^
b0 _
0`
b0 a
b1000 b
b0 c
b0 d
b0 e
b0 f
b0 g
b0 h
b11111111111111111111111111110110 i
b0 j
b0 k
b100 o
b100 p
1q
b100 r
1s
b100 t
#330000
05
0V
0q
0s
#335000
0'
1+
b11111111111111111111111111110111 ,
15
b11111111111111111111111111110111 ;
b0 @
b11110100001000011110 J
1V
b1 X
b1 Y
0Z
b10 [
b0 \
b1000 ]
b0 ^
b0 _
1`
b0 a
b1000 b
b0 c
b0 d
b0 e
b0 f
b0 g
b0 h
b11111111111111111111111111110110 i
b0 j
b0 k
b1000 o
b1000 p
1q
b1000 r
1s
b1000 t
#340000
05
0V
0q
0s
#345000
0'
0(
1)
b101100 *
0+
b100 ,
15
b11 H
b11110100001000011101 J
b101100 K
1L
0M
1V
b1 X
b1 Y
0Z
b0 [
b0 \
b1000 ]
b0 ^
b0 _
0`
b0 a
b1000 b
b0 c
b0 d
b0 e
b0 f
b0 g
b0 h
b11111111111111111111111111110111 i
b0 j
b0 k
b1000 o
b1000 p
1q
b1000 r
1s
b1000 t
b101100 w
b10111 x
b11111111111111111111111111111111 y
#350000
05
0V
0q
0s
#355000
1'
1(
1)
15
b1100 :
b1100 ?
b11110100001000011100 J
1M
1V
b1 Y
0Z
b1 [
b0 \
b1100 ]
b0 ^
b0 _
0`
b0 a
b1100 b
b0 c
b0 d
b0 e
b0 f
b0 g
b0 h
b11111111111111111111111111110111 i
b0 j
b0 k
b1000 o
b1000 p
1q
b1000 r
1s
b1000 t
#360000
05
0V
0q
0s
#365000
0'
1+
b10111 ,
15
b10111 ;
b0 @
b11110100001000011011 J
1V
b1 X
b1 Y
0Z
b10 [
b0 \
b1100 ]
b0 ^
b0 _
1`
b0 a
b1100 b
b0 c
b0 d
b0 e
b0 f
b0 g
b0 h
b11111111111111111111111111110111 i
b0 j
b0 k
b1100 o
b1100 p
1q
b1100 r
1s
b1100 t
#370000
05
0V
0q
0s
#375000
0'
0(
1)
b110000 *
0+
b100 ,
15
b100 H
b11110100001000011010 J
b110000 K
1L
0M
1V
b1 X
b1 Y
0Z
b0 [
b0 \
b1100 ]
b0 ^
b0 _
0`
b0 a
b1100 b
b0 c
b0 d
b0 e
b0 f
b0 g
b0 h
b10111 i
b0 j
b0 k
b1100 o
b1100 p
1q
b1100 r
1s
b1100 t
b110000 w
b111000 x
b11111111111111111111111111111111 y
#380000
05
0V
0q
0s
#385000
1'
1(
1)
15
b10000 :
b10000 ?
b11110100001000011001 J
1M
1V
b1 Y
0Z
b1 [
b0 \
b10000 ]
b0 ^
b0 _
0`
b0 a
b10000 b
b0 c
b0 d
b0 e
b0 f
b0 g
b0 h
b10111 i
b0 j
b0 k
b1100 o
b1100 p
1q
b1100 r
1s
b1100 t
#390000
05
0V
0q
0s
#395000
0'
1+
b111000 ,
15
b111000 ;
b0 @
b11110100001000011000 J
1V
b1 X
b1 Y
0Z
b10 [
b0 \
b10000 ]
b0 ^
b0 _
1`
b0 a
b10000 b
b0 c
b0 d
b0 e
b0 f
b0 g
b0 h
b10111 i
b0 j
b0 k
b10000 o
b10000 p
1q
b10000 r
1s
b10000 t
#400000
05
0V
0q
0s
#405000
0'
0(
1)
b110100 *
0+
b100 ,
15
b101 H
b11110100001000010111 J
b110100 K
1L
0M
1V
b1 X
b1 Y
0Z
b0 [
b0 \
b10000 ]
b0 ^
b0 _
0`
b0 a
b10000 b
b0 c
b0 d
b0 e
b0 f
b0 g
b0 h
b111000 i
b0 j
b0 k
b10000 o
b10000 p
1q
b10000 r
1s
b10000 t
b110100 w
b111111 x
b11111111111111111111111111111111 y
#410000
05
0V
0q
0s
#415000
1'
1(
1)
15
b10100 :
b10100 ?
b11110100001000010110 J
1M
1V
b1 Y
0Z
b1 [
b0 \
b10100 ]
b0 ^
b0 _
0`
b0 a
b10100 b
b0 c
b0 d
b0 e
b0 f
b0 g
b0 h
b111000 i
b0 j
b0 k
b10000 o
b10000 p
1q
b10000 r
1s
b10000 t
#420000
05
0V
0q
0s
#425000
0'
1+
b111111 ,
15
b111111 ;
b0 @
b11110100001000010101 J
1V
b1 X
b1 Y
0Z
b10 [
b0 \
b10100 ]
b0 ^
b0 _
1`
b0 a
b10100 b
b0 c
b0 d
b0 e
b0 f
b0 g
b0 h
b111000 i
b0 j
b0 k
b10100 o
b10100 p
1q
b10100 r
1s
b10100 t
#430000
05
0V
0q
0s
#435000
0'
0(
1)
b111000 *
0+
b100 ,
15
b110 H
b11110100001000010100 J
b111000 K
1L
0M
1V
b1 X
b1 Y
0Z
b0 [
b0 \
b10100 ]
b0 ^
b0 _
0`
b0 a
b10100 b
b0 c
b0 d
b0 e
b0 f
b0 g
b0 h
b111111 i
b0 j
b0 k
b10100 o
b10100 p
1q
b10100 r
1s
b10100 t
b111000 w
b111000 x
b11111111111111111111111111111111 y
#440000
05
0V
0q
0s
#445000
1'
1(
1)
15
b11000 :
b11000 ?
b11110100001000010011 J
1M
1V
b1 Y
0Z
b1 [
b0 \
b11000 ]
b0 ^
b0 _
0`
b0 a
b11000 b
b0 c
b0 d
b0 e
b0 f
b0 g
b0 h
b111111 i
b0 j
b0 k
b10100 o
b10100 p
1q
b10100 r
1s
b10100 t
#450000
05
0V
0q
0s
#455000
0'
1+
b111000 ,
15
b111000 ;
b0 @
b11110100001000010010 J
1V
b1 X
b1 Y
0Z
b10 [
b0 \
b11000 ]
b0 ^
b0 _
1`
b0 a
b11000 b
b0 c
b0 d
b0 e
b0 f
b0 g
b0 h
b111111 i
b0 j
b0 k
b11000 o
b11000 p
1q
b11000 r
1s
b11000 t
#460000
05
0V
0q
0s
#465000
0'
0(
1)
b111100 *
0+
b100 ,
15
b111 H
b11110100001000010001 J
b111100 K
1L
0M
1V
b1 X
b1 Y
0Z
b0 [
b0 \
b11000 ]
b0 ^
b0 _
0`
b0 a
b11000 b
b0 c
b0 d
b0 e
b0 f
b0 g
b0 h
b111000 i
b0 j
b0 k
b11000 o
b11000 p
1q
b11000 r
1s
b11000 t
b111100 w
b10111 x
b11111111111111111111111111111111 y
#470000
05
0V
0q
0s
#475000
1'
1(
1)
15
b11100 :
b11100 ?
b11110100001000010000 J
1M
1V
b1 Y
0Z
b1 [
b0 \
b11100 ]
b0 ^
b0 _
0`
b0 a
b11100 b
b0 c
b0 d
b0 e
b0 f
b0 g
b0 h
b111000 i
b0 j
b0 k
b11000 o
b11000 p
1q
b11000 r
1s
b11000 t
#480000
05
0V
0q
0s
#485000
0'
1+
b10111 ,
15
b10111 ;
b0 @
b11110100001000001111 J
1V
b1 X
b1 Y
0Z
b10 [
b0 \
b11100 ]
b0 ^
b0 _
1`
b0 a
b11100 b
b0 c
b0 d
b0 e
b0 f
b0 g
b0 h
b111000 i
b0 j
b0 k
b11100 o
b11100 p
1q
b11100 r
1s
b11100 t
#490000
05
0V
0q
0s
#495000
0'
0(
1)
b1000000 *
0+
b100 ,
15
b1000 H
b11110100001000001110 J
b1000000 K
1L
0M
1V
b1 X
b1 Y
0Z
b0 [
b0 \
b11100 ]
b0 ^
b0 _
0`
b0 a
b11100 b
b0 c
b0 d
b0 e
b0 f
b0 g
b0 h
b10111 i
b0 j
b0 k
b11100 o
b11100 p
1q
b11100 r
1s
b11100 t
b1000000 w
b11111111111111111111111111110111 x
b11111111111111111111111111111111 y
#500000
05
0V
0q
0s
#505000
1'
1(
1)
15
b100000 :
b100000 ?
b11110100001000001101 J
1M
1V
b1 Y
0Z
b1 [
b0 \
b100000 ]
b0 ^
b0 _
0`
b0 a
b100000 b
b0 c
b0 d
b0 e
b0 f
b0 g
b0 h
b10111 i
b0 j
b0 k
b11100 o
b11100 p
1q
b11100 r
1s
b11100 t
#510000
05
0V
0q
0s
#515000
0'
1+
b11111111111111111111111111110111 ,
15
b11111111111111111111111111110111 ;
b0 @
b11110100001000001100 J
1V
b1 X
b1 Y
0Z
b10 [
b0 \
b100000 ]
b0 ^
b0 _
1`
b0 a
b100000 b
b0 c
b0 d
b0 e
b0 f
b0 g
b0 h
b10111 i
b0 j
b0 k
b100000 o
b100000 p
1q
b100000 r
1s
b100000 t
#520000
05
0V
0q
0s
